<svg width="32" height="32" viewBox="0 0 32 32" fill="none" xmlns="http://www.w3.org/2000/svg">
<g clip-path="url(#cross_l_clip0)">
<path d="M6.3999 6.39999L25.5999 25.6" stroke="black" stroke-width="2"/>
<path d="M6.3999 25.6L25.5999 6.39999" stroke="black" stroke-width="2"/>
</g>
<defs>
<clipPath id="cross_l_clip0">
<rect width="32" height="32" fill="white"/>
</clipPath>
</defs>
</svg>
