<svg width="148" height="40" viewBox="0 0 148 40" fill="none" xmlns="http://www.w3.org/2000/svg">
<path fill-rule="evenodd" clip-rule="evenodd" d="M20.9875 17.8425L29.5159 7L22.5153 7C21.2886 7 20.1298 7.56288 19.3714 8.52706L16.5158 12.1574L20.9875 17.8425ZM16.5158 23.5276L15.6054 22.3702L14.695 23.5276L15.6054 24.6851L16.5158 23.5276ZM10.2233 17.8425L1.69498 7H8.69554C9.92225 7 11.0811 7.56288 11.8395 8.52706L14.695 12.1574L10.2233 17.8425Z" fill="#2D2D2D"/>
<path d="M0 34L15.6055 14.3149L31.2109 34L24.0885 34C22.8618 34 21.7029 33.4372 20.9445 32.473L15.6054 25.6851L10.2663 32.473C9.50796 33.4372 8.34908 34 7.12238 34L0 34Z" fill="#FF5521"/>
<path d="M49.8217 23.92L46.6537 14.884L43.4857 23.92H49.8217ZM51.6937 29.284H41.6137L39.9937 34H32.4697L42.8017 6.856H50.5057L60.8377 34H53.3137L51.6937 29.284ZM71.0161 18.052L79.6201 6.856H88.3321L77.5681 19.708L89.3401 34H80.1961L71.0161 22.228V34H63.9601V6.856H71.0161V18.052ZM99.5278 6.856V23.488L112.524 6.856H119.58V34H112.524V17.404L99.5278 34H92.4718V6.856H99.5278ZM144.821 15.928C143.189 13.936 141.173 12.94 138.773 12.94C137.717 12.94 136.733 13.132 135.821 13.516C134.933 13.9 134.165 14.428 133.517 15.1C132.869 15.748 132.353 16.528 131.969 17.44C131.609 18.352 131.429 19.336 131.429 20.392C131.429 21.472 131.609 22.468 131.969 23.38C132.353 24.292 132.869 25.084 133.517 25.756C134.189 26.428 134.969 26.956 135.857 27.34C136.745 27.724 137.705 27.916 138.737 27.916C140.993 27.916 143.021 26.956 144.821 25.036V33.388L144.101 33.64C143.021 34.024 142.013 34.3 141.077 34.468C140.141 34.66 139.217 34.756 138.305 34.756C136.433 34.756 134.633 34.408 132.905 33.712C131.201 32.992 129.689 31.996 128.369 30.724C127.073 29.428 126.029 27.904 125.237 26.152C124.445 24.376 124.049 22.444 124.049 20.356C124.049 18.268 124.433 16.36 125.201 14.632C125.993 12.88 127.037 11.38 128.333 10.132C129.653 8.86 131.177 7.876 132.905 7.18C134.633 6.46 136.445 6.1 138.341 6.1C139.421 6.1 140.477 6.22 141.509 6.46C142.565 6.676 143.669 7.024 144.821 7.504V15.928Z" fill="#2D2D2D"/>
</svg>
