<svg width="16" height="16" viewBox="0 0 16 16" fill="none" xmlns="http://www.w3.org/2000/svg">
<path d="M9.99786 13.7898L14.5879 2.77362C14.9158 1.9867 15.0798 1.59324 15 1.34709C14.9308 1.13353 14.7634 0.966115 14.5498 0.896924C14.3037 0.817174 13.9102 0.981116 13.1233 1.309L2.10716 5.89906C1.05412 6.33783 0.527598 6.55721 0.396926 6.84076C0.283854 7.08611 0.30225 7.37196 0.44584 7.6008C0.611782 7.86526 1.16208 8.01534 2.26267 8.3155L5.55962 9.21467C5.56896 9.21721 5.57816 9.21972 5.58723 9.2222L14.085 1.61857C14.165 1.54693 14.2877 1.55231 14.3611 1.6307C14.4313 1.70549 14.4326 1.82144 14.3643 1.89784L6.71299 10.45L7.58142 13.6343C7.88159 14.7348 8.03167 15.2851 8.29613 15.4511C8.52496 15.5947 8.81081 15.6131 9.05617 15.5C9.33971 15.3693 9.5591 14.8428 9.99786 13.7898Z" fill="white"/>
</svg>
