<svg width="959" height="1000" viewBox="0 0 959 1000" fill="none" xmlns="http://www.w3.org/2000/svg">
<path d="M852 0L39.5 1040" stroke="#E1E1E8" stroke-width="2"/>
<path d="M418.5 0L1231 1040" stroke="#E1E1E8" stroke-width="2"/>
<path d="M1241.5 0L429 1040" stroke="#E1E1E8" stroke-width="2"/>
<path d="M29 0L841.5 1040" stroke="#E1E1E8" stroke-width="2"/>
<path d="M522 631L715 878" stroke="#FF7A00" stroke-width="4"/>
<path d="M482 81L525 136" stroke="#FF7A00" stroke-width="4"/>
<path d="M560 181L687 344" stroke="#FF7A00" stroke-width="4"/>
<path d="M588 217L715 380" stroke="#FF7A00" stroke-width="24"/>
<path d="M961 692L1228 1033" stroke="#FF7A00" stroke-width="24"/>
<path d="M897 612L1023 773" stroke="#FF7A00" stroke-width="4"/>
<path d="M254 288L335 392" stroke="#FF7A00" stroke-width="4"/>
<path d="M284 327L417 497" stroke="#FF7A00" stroke-width="24"/>
<path d="M396 584L2 1089" stroke="#FF7A00" stroke-width="4"/>
<path d="M261 755L163 881" stroke="#FF7A00" stroke-width="24"/>
<path d="M399.5 579L382.5 601" stroke="#FF7A00" stroke-width="24"/>
<path d="M862 486L845 508" stroke="#FF7A00" stroke-width="24"/>
<path d="M915 418L758 619" stroke="#FF7A00" stroke-width="4"/>
<path d="M825 36L783 90" stroke="#FF7A00" stroke-width="24"/>
<path d="M744 639L357 1134" stroke="#FF7A00" stroke-width="24"/>
<path d="M509 439L491 462" stroke="#FF7A00" stroke-width="24"/>
<path d="M693 204L499 451" stroke="#FF7A00" stroke-width="4"/>
</svg>
